(['C:\\pyinstaller-2.0\\support\\_pyi_bootstrap.py',
  'C:\\pyinstaller-2.0\\PyInstaller\\loader\\archive.py',
  'C:\\pyinstaller-2.0\\PyInstaller\\loader\\carchive.py',
  'C:\\pyinstaller-2.0\\PyInstaller\\loader\\iu.py',
  'qqmusic_download.py'],
 ['C:\\Users\\junfeng\\Desktop\\qqmusic_download'],
 None,
 None,
 [('_pyi_bootstrap', 'C:\\pyinstaller-2.0\\support\\_pyi_bootstrap.py', 'PYSOURCE'), ('archive', 'C:\\pyinstaller-2.0\\PyInstaller\\loader\\archive.py', 'PYSOURCE'), ('carchive', 'C:\\pyinstaller-2.0\\PyInstaller\\loader\\carchive.py', 'PYSOURCE'), ('iu', 'C:\\pyinstaller-2.0\\PyInstaller\\loader\\iu.py', 'PYSOURCE'), ('pyi_rth_encodings', 'C:\\pyinstaller-2.0\\support/rthooks/pyi_rth_encodings.py', 'PYSOURCE'), ('qqmusic_download', 'qqmusic_download.py', 'PYSOURCE')],
 [('nturl2path', 'C:\\Python27\\lib\\nturl2path.pyc', 'PYMODULE'), ('encodings.cp932', 'C:\\Python27\\lib\\encodings\\cp932.pyc', 'PYMODULE'), ('distutils.sysconfig', 'C:\\Python27\\lib\\distutils\\sysconfig.pyc', 'PYMODULE'), ('pyreadline.modes.basemode', 'C:\\Python27\\lib\\site-packages\\pyreadline\\modes\\basemode.pyc', 'PYMODULE'), ('encodings.big5', 'C:\\Python27\\lib\\encodings\\big5.pyc', 'PYMODULE'), ('encodings.cp1140', 'C:\\Python27\\lib\\encodings\\cp1140.pyc', 'PYMODULE'), ('pprint', 'C:\\Python27\\lib\\pprint.pyc', 'PYMODULE'), ('encodings.euc_jis_2004', 'C:\\Python27\\lib\\encodings\\euc_jis_2004.pyc', 'PYMODULE'), ('encodings.utf_7', 'C:\\Python27\\lib\\encodings\\utf_7.pyc', 'PYMODULE'), ('string', 'C:\\Python27\\lib\\string.pyc', 'PYMODULE'), ('encodings.utf_8', 'C:\\Python27\\lib\\encodings\\utf_8.pyc', 'PYMODULE'), ('email.quoprimime', 'C:\\Python27\\lib\\email\\quoprimime.pyc', 'PYMODULE'), ('pyreadline.modes', 'C:\\Python27\\lib\\site-packages\\pyreadline\\modes\\__init__.pyc', 'PYMODULE'), ('pyreadline.rlmain', 'C:\\Python27\\lib\\site-packages\\pyreadline\\rlmain.pyc', 'PYMODULE'), ('cmd', 'C:\\Python27\\lib\\cmd.pyc', 'PYMODULE'), ('os2emxpath', 'C:\\Python27\\lib\\os2emxpath.pyc', 'PYMODULE'), ('encodings.iso8859_9', 'C:\\Python27\\lib\\encodings\\iso8859_9.pyc', 'PYMODULE'), ('encodings.iso8859_8', 'C:\\Python27\\lib\\encodings\\iso8859_8.pyc', 'PYMODULE'), ('shlex', 'C:\\Python27\\lib\\shlex.pyc', 'PYMODULE'), ('multiprocessing.pool', 'C:\\Python27\\lib\\multiprocessing\\pool.pyc', 'PYMODULE'), ('encodings.iso8859_3', 'C:\\Python27\\lib\\encodings\\iso8859_3.pyc', 'PYMODULE'), ('encodings.iso8859_2', 'C:\\Python27\\lib\\encodings\\iso8859_2.pyc', 'PYMODULE'), ('encodings.iso8859_1', 'C:\\Python27\\lib\\encodings\\iso8859_1.pyc', 'PYMODULE'), ('encodings.iso8859_7', 'C:\\Python27\\lib\\encodings\\iso8859_7.pyc', 'PYMODULE'), ('encodings.iso8859_6', 'C:\\Python27\\lib\\encodings\\iso8859_6.pyc', 'PYMODULE'), ('encodings.iso8859_5', 'C:\\Python27\\lib\\encodings\\iso8859_5.pyc', 'PYMODULE'), ('dis', 'C:\\Python27\\lib\\dis.pyc', 'PYMODULE'), ('encodings.iso2022_jp_ext', 'C:\\Python27\\lib\\encodings\\iso2022_jp_ext.pyc', 'PYMODULE'), ('encodings.gbk', 'C:\\Python27\\lib\\encodings\\gbk.pyc', 'PYMODULE'), ('abc', 'C:\\Python27\\lib\\abc.pyc', 'PYMODULE'), ('bdb', 'C:\\Python27\\lib\\bdb.pyc', 'PYMODULE'), ('py_compile', 'C:\\Python27\\lib\\py_compile.pyc', 'PYMODULE'), ('encodings.palmos', 'C:\\Python27\\lib\\encodings\\palmos.pyc', 'PYMODULE'), ('tarfile', 'C:\\Python27\\lib\\tarfile.pyc', 'PYMODULE'), ('ntpath', 'C:\\Python27\\lib\\ntpath.pyc', 'PYMODULE'), ('optparse', 'C:\\Python27\\lib\\optparse.pyc', 'PYMODULE'), ('unittest.suite', 'C:\\Python27\\lib\\unittest\\suite.pyc', 'PYMODULE'), ('encodings.iso2022_jp_1', 'C:\\Python27\\lib\\encodings\\iso2022_jp_1.pyc', 'PYMODULE'), ('encodings.iso2022_jp_3', 'C:\\Python27\\lib\\encodings\\iso2022_jp_3.pyc', 'PYMODULE'), ('encodings.iso2022_jp_2', 'C:\\Python27\\lib\\encodings\\iso2022_jp_2.pyc', 'PYMODULE'), ('codecs', 'C:\\Python27\\lib\\codecs.pyc', 'PYMODULE'), ('email.header', 'C:\\Python27\\lib\\email\\header.pyc', 'PYMODULE'), ('StringIO', 'C:\\Python27\\lib\\StringIO.pyc', 'PYMODULE'), ('weakref', 'C:\\Python27\\lib\\weakref.pyc', 'PYMODULE'), ('doctest', 'C:\\Python27\\lib\\doctest.pyc', 'PYMODULE'), ('encodings.cp720', 'C:\\Python27\\lib\\encodings\\cp720.pyc', 'PYMODULE'), ('base64', 'C:\\Python27\\lib\\base64.pyc', 'PYMODULE'), ('encodings.cp875', 'C:\\Python27\\lib\\encodings\\cp875.pyc', 'PYMODULE'), ('encodings.cp874', 'C:\\Python27\\lib\\encodings\\cp874.pyc', 'PYMODULE'), ('email.charset', 'C:\\Python27\\lib\\email\\charset.pyc', 'PYMODULE'), ('encodings.punycode', 'C:\\Python27\\lib\\encodings\\punycode.pyc', 'PYMODULE'), ('encodings.cp1258', 'C:\\Python27\\lib\\encodings\\cp1258.pyc', 'PYMODULE'), ('encodings.cp1257', 'C:\\Python27\\lib\\encodings\\cp1257.pyc', 'PYMODULE'), ('encodings.latin_1', 'C:\\Python27\\lib\\encodings\\latin_1.pyc', 'PYMODULE'), ('tokenize', 'C:\\Python27\\lib\\tokenize.pyc', 'PYMODULE'), ('encodings.charmap', 'C:\\Python27\\lib\\encodings\\charmap.pyc', 'PYMODULE'), ('FileDown', 'C:\\Users\\junfeng\\Desktop\\qqmusic_download\\FileDown.pyc', 'PYMODULE'), ('encodings.cp1006', 'C:\\Python27\\lib\\encodings\\cp1006.pyc', 'PYMODULE'), ('encodings.cp424', 'C:\\Python27\\lib\\encodings\\cp424.pyc', 'PYMODULE'), ('pyreadline.keysyms', 'C:\\Python27\\lib\\site-packages\\pyreadline\\keysyms\\__init__.pyc', 'PYMODULE'), ('encodings.iso2022_kr', 'C:\\Python27\\lib\\encodings\\iso2022_kr.pyc', 'PYMODULE'), ('encodings.aliases', 'C:\\Python27\\lib\\encodings\\aliases.pyc', 'PYMODULE'), ('fnmatch', 'C:\\Python27\\lib\\fnmatch.pyc', 'PYMODULE'), ('sre_parse', 'C:\\Python27\\lib\\sre_parse.pyc', 'PYMODULE'), ('pickle', 'C:\\Python27\\lib\\pickle.pyc', 'PYMODULE'), ('encodings.hz', 'C:\\Python27\\lib\\encodings\\hz.pyc', 'PYMODULE'), ('sqlite3.dbapi2', 'C:\\Python27\\lib\\sqlite3\\dbapi2.pyc', 'PYMODULE'), ('encodings.utf_16', 'C:\\Python27\\lib\\encodings\\utf_16.pyc', 'PYMODULE'), ('encodings.cp1256', 'C:\\Python27\\lib\\encodings\\cp1256.pyc', 'PYMODULE'), ('encodings.cp1255', 'C:\\Python27\\lib\\encodings\\cp1255.pyc', 'PYMODULE'), ('encodings.cp1254', 'C:\\Python27\\lib\\encodings\\cp1254.pyc', 'PYMODULE'), ('encodings.cp1253', 'C:\\Python27\\lib\\encodings\\cp1253.pyc', 'PYMODULE'), ('encodings.cp1252', 'C:\\Python27\\lib\\encodings\\cp1252.pyc', 'PYMODULE'), ('encodings.cp1251', 'C:\\Python27\\lib\\encodings\\cp1251.pyc', 'PYMODULE'), ('encodings.cp1250', 'C:\\Python27\\lib\\encodings\\cp1250.pyc', 'PYMODULE'), ('email.message', 'C:\\Python27\\lib\\email\\message.pyc', 'PYMODULE'), ('shutil', 'C:\\Python27\\lib\\shutil.pyc', 'PYMODULE'), ('xmlrpclib', 'C:\\Python27\\lib\\xmlrpclib.pyc', 'PYMODULE'), ('pyreadline.console.ironpython_console', 'C:\\Python27\\lib\\site-packages\\pyreadline\\console\\ironpython_console.pyc', 'PYMODULE'), ('encodings.shift_jis', 'C:\\Python27\\lib\\encodings\\shift_jis.pyc', 'PYMODULE'), ('pyreadline.console.event', 'C:\\Python27\\lib\\site-packages\\pyreadline\\console\\event.pyc', 'PYMODULE'), ('ctypes.util', 'C:\\Python27\\lib\\ctypes\\util.pyc', 'PYMODULE'), ('encodings.shift_jisx0213', 'C:\\Python27\\lib\\encodings\\shift_jisx0213.pyc', 'PYMODULE'), ('ctypes.macholib.framework', 'C:\\Python27\\lib\\ctypes\\macholib\\framework.pyc', 'PYMODULE'), ('email.parser', 'C:\\Python27\\lib\\email\\parser.pyc', 'PYMODULE'), ('types', 'C:\\Python27\\lib\\types.pyc', 'PYMODULE'), ('email.base64mime', 'C:\\Python27\\lib\\email\\base64mime.pyc', 'PYMODULE'), ('email.mime.multipart', 'C:\\Python27\\lib\\email\\mime\\multipart.pyc', 'PYMODULE'), ('email.generator', 'C:\\Python27\\lib\\email\\generator.pyc', 'PYMODULE'), ('_weakrefset', 'C:\\Python27\\lib\\_weakrefset.pyc', 'PYMODULE'), ('chunk', 'C:\\Python27\\lib\\chunk.pyc', 'PYMODULE'), ('functools', 'C:\\Python27\\lib\\functools.pyc', 'PYMODULE'), ('email.mime.text', 'C:\\Python27\\lib\\email\\mime\\text.pyc', 'PYMODULE'), ('pyreadline.lineeditor.wordmatcher', 'C:\\Python27\\lib\\site-packages\\pyreadline\\lineeditor\\wordmatcher.pyc', 'PYMODULE'), ('songlist', 'C:\\Users\\junfeng\\Desktop\\qqmusic_download\\songlist.pyc', 'PYMODULE'), ('tempfile', 'C:\\Python27\\lib\\tempfile.pyc', 'PYMODULE'), ('pyreadline.clipboard.win32_clipboard', 'C:\\Python27\\lib\\site-packages\\pyreadline\\clipboard\\win32_clipboard.pyc', 'PYMODULE'), ('ftplib', 'C:\\Python27\\lib\\ftplib.pyc', 'PYMODULE'), ('unittest.util', 'C:\\Python27\\lib\\unittest\\util.pyc', 'PYMODULE'), ('encodings.base64_codec', 'C:\\Python27\\lib\\encodings\\base64_codec.pyc', 'PYMODULE'), ('multiprocessing.sharedctypes', 'C:\\Python27\\lib\\multiprocessing\\sharedctypes.pyc', 'PYMODULE'), ('httplib', 'C:\\Python27\\lib\\httplib.pyc', 'PYMODULE'), ('logging.handlers', 'C:\\Python27\\lib\\logging\\handlers.pyc', 'PYMODULE'), ('bisect', 'C:\\Python27\\lib\\bisect.pyc', 'PYMODULE'), ('token', 'C:\\Python27\\lib\\token.pyc', 'PYMODULE'), ('email.encoders', 'C:\\Python27\\lib\\email\\encoders.pyc', 'PYMODULE'), ('pyreadline.console.console', 'C:\\Python27\\lib\\site-packages\\pyreadline\\console\\console.pyc', 'PYMODULE'), ('pyreadline.clipboard.no_clipboard', 'C:\\Python27\\lib\\site-packages\\pyreadline\\clipboard\\no_clipboard.pyc', 'PYMODULE'), ('pyreadline.logger', 'C:\\Python27\\lib\\site-packages\\pyreadline\\logger.pyc', 'PYMODULE'), ('multiprocessing.process', 'C:\\Python27\\lib\\multiprocessing\\process.pyc', 'PYMODULE'), ('encodings', 'C:\\Python27\\lib\\encodings\\__init__.pyc', 'PYMODULE'), ('pyreadline.console', 'C:\\Python27\\lib\\site-packages\\pyreadline\\console\\__init__.pyc', 'PYMODULE'), ('re', 'C:\\Python27\\lib\\re.pyc', 'PYMODULE'), ('encodings.utf_8_sig', 'C:\\Python27\\lib\\encodings\\utf_8_sig.pyc', 'PYMODULE'), ('pyreadline.keysyms.winconstants', 'C:\\Python27\\lib\\site-packages\\pyreadline\\keysyms\\winconstants.pyc', 'PYMODULE'), ('pyreadline', 'C:\\Python27\\lib\\site-packages\\pyreadline\\__init__.pyc', 'PYMODULE'), ('encodings.uu_codec', 'C:\\Python27\\lib\\encodings\\uu_codec.pyc', 'PYMODULE'), ('logging', 'C:\\Python27\\lib\\logging\\__init__.pyc', 'PYMODULE'), ('pyreadline.keysyms.keysyms', 'C:\\Python27\\lib\\site-packages\\pyreadline\\keysyms\\keysyms.pyc', 'PYMODULE'), ('encodings.euc_jisx0213', 'C:\\Python27\\lib\\encodings\\euc_jisx0213.pyc', 'PYMODULE'), ('traceback', 'C:\\Python27\\lib\\traceback.pyc', 'PYMODULE'), ('encodings.iso2022_jp_2004', 'C:\\Python27\\lib\\encodings\\iso2022_jp_2004.pyc', 'PYMODULE'), ('multiprocessing', 'C:\\Python27\\lib\\multiprocessing\\__init__.pyc', 'PYMODULE'), ('encodings.zlib_codec', 'C:\\Python27\\lib\\encodings\\zlib_codec.pyc', 'PYMODULE'), ('dummy_threading', 'C:\\Python27\\lib\\dummy_threading.pyc', 'PYMODULE'), ('multiprocessing.util', 'C:\\Python27\\lib\\multiprocessing\\util.pyc', 'PYMODULE'), ('encodings.iso8859_4', 'C:\\Python27\\lib\\encodings\\iso8859_4.pyc', 'PYMODULE'), ('pyreadline.keysyms.common', 'C:\\Python27\\lib\\site-packages\\pyreadline\\keysyms\\common.pyc', 'PYMODULE'), ('email.mime.image', 'C:\\Python27\\lib\\email\\mime\\image.pyc', 'PYMODULE'), ('encodings.mac_centeuro', 'C:\\Python27\\lib\\encodings\\mac_centeuro.pyc', 'PYMODULE'), ('_LWPCookieJar', 'C:\\Python27\\lib\\_LWPCookieJar.pyc', 'PYMODULE'), ('posixpath', 'C:\\Python27\\lib\\posixpath.pyc', 'PYMODULE'), ('encodings.cp850', 'C:\\Python27\\lib\\encodings\\cp850.pyc', 'PYMODULE'), ('encodings.cp737', 'C:\\Python27\\lib\\encodings\\cp737.pyc', 'PYMODULE'), ('encodings.utf_16_be', 'C:\\Python27\\lib\\encodings\\utf_16_be.pyc', 'PYMODULE'), ('xml.sax.expatreader', 'C:\\Python27\\lib\\xml\\sax\\expatreader.pyc', 'PYMODULE'), ('email.feedparser', 'C:\\Python27\\lib\\email\\feedparser.pyc', 'PYMODULE'), ('_osx_support', 'C:\\Python27\\lib\\_osx_support.pyc', 'PYMODULE'), ('ctypes.macholib.dyld', 'C:\\Python27\\lib\\ctypes\\macholib\\dyld.pyc', 'PYMODULE'), ('copy', 'C:\\Python27\\lib\\copy.pyc', 'PYMODULE'), ('hashlib', 'C:\\Python27\\lib\\hashlib.pyc', 'PYMODULE'), ('keyword', 'C:\\Python27\\lib\\keyword.pyc', 'PYMODULE'), ('xml.sax.saxutils', 'C:\\Python27\\lib\\xml\\sax\\saxutils.pyc', 'PYMODULE'), ('stringprep', 'C:\\Python27\\lib\\stringprep.pyc', 'PYMODULE'), ('encodings.unicode_internal', 'C:\\Python27\\lib\\encodings\\unicode_internal.pyc', 'PYMODULE'), ('encodings.mac_turkish', 'C:\\Python27\\lib\\encodings\\mac_turkish.pyc', 'PYMODULE'), ('encodings.mac_cyrillic', 'C:\\Python27\\lib\\encodings\\mac_cyrillic.pyc', 'PYMODULE'), ('encodings.euc_jp', 'C:\\Python27\\lib\\encodings\\euc_jp.pyc', 'PYMODULE'), ('sre_compile', 'C:\\Python27\\lib\\sre_compile.pyc', 'PYMODULE'), ('getpass', 'C:\\Python27\\lib\\getpass.pyc', 'PYMODULE'), ('encodings.string_escape', 'C:\\Python27\\lib\\encodings\\string_escape.pyc', 'PYMODULE'), ('unittest.result', 'C:\\Python27\\lib\\unittest\\result.pyc', 'PYMODULE'), ('encodings.quopri_codec', 'C:\\Python27\\lib\\encodings\\quopri_codec.pyc', 'PYMODULE'), ('encodings.mac_latin2', 'C:\\Python27\\lib\\encodings\\mac_latin2.pyc', 'PYMODULE'), ('encodings.cp869', 'C:\\Python27\\lib\\encodings\\cp869.pyc', 'PYMODULE'), ('encodings.cp866', 'C:\\Python27\\lib\\encodings\\cp866.pyc', 'PYMODULE'), ('encodings.cp864', 'C:\\Python27\\lib\\encodings\\cp864.pyc', 'PYMODULE'), ('encodings.cp865', 'C:\\Python27\\lib\\encodings\\cp865.pyc', 'PYMODULE'), ('encodings.cp862', 'C:\\Python27\\lib\\encodings\\cp862.pyc', 'PYMODULE'), ('encodings.cp863', 'C:\\Python27\\lib\\encodings\\cp863.pyc', 'PYMODULE'), ('encodings.cp860', 'C:\\Python27\\lib\\encodings\\cp860.pyc', 'PYMODULE'), ('encodings.cp861', 'C:\\Python27\\lib\\encodings\\cp861.pyc', 'PYMODULE'), ('pyreadline.modes.vi', 'C:\\Python27\\lib\\site-packages\\pyreadline\\modes\\vi.pyc', 'PYMODULE'), ('warnings', 'C:\\Python27\\lib\\warnings.pyc', 'PYMODULE'), ('encodings.ascii', 'C:\\Python27\\lib\\encodings\\ascii.pyc', 'PYMODULE'), ('ctypes.macholib', 'C:\\Python27\\lib\\ctypes\\macholib\\__init__.pyc', 'PYMODULE'), ('linecache', 'C:\\Python27\\lib\\linecache.pyc', 'PYMODULE'), ('encodings.rot_13', 'C:\\Python27\\lib\\encodings\\rot_13.pyc', 'PYMODULE'), ('pyreadline.release', 'C:\\Python27\\lib\\site-packages\\pyreadline\\release.pyc', 'PYMODULE'), ('hmac', 'C:\\Python27\\lib\\hmac.pyc', 'PYMODULE'), ('email.iterators', 'C:\\Python27\\lib\\email\\iterators.pyc', 'PYMODULE'), ('random', 'C:\\Python27\\lib\\random.pyc', 'PYMODULE'), ('subprocess', 'C:\\Python27\\lib\\subprocess.pyc', 'PYMODULE'), ('ctypes._endian', 'C:\\Python27\\lib\\ctypes\\_endian.pyc', 'PYMODULE'), ('pyreadline.lineeditor.lineobj', 'C:\\Python27\\lib\\site-packages\\pyreadline\\lineeditor\\lineobj.pyc', 'PYMODULE'), ('xml', 'C:\\Python27\\lib\\xml\\__init__.pyc', 'PYMODULE'), ('distutils', 'C:\\Python27\\lib\\distutils\\__init__.pyc', 'PYMODULE'), ('encodings.cp775', 'C:\\Python27\\lib\\encodings\\cp775.pyc', 'PYMODULE'), ('smtplib', 'C:\\Python27\\lib\\smtplib.pyc', 'PYMODULE'), ('encodings.mac_arabic', 'C:\\Python27\\lib\\encodings\\mac_arabic.pyc', 'PYMODULE'), ('zipfile', 'C:\\Python27\\lib\\zipfile.pyc', 'PYMODULE'), ('repr', 'C:\\Python27\\lib\\repr.pyc', 'PYMODULE'), ('ssl', 'C:\\Python27\\lib\\ssl.pyc', 'PYMODULE'), ('cookielib', 'C:\\Python27\\lib\\cookielib.pyc', 'PYMODULE'), ('email', 'C:\\Python27\\lib\\email\\__init__.pyc', 'PYMODULE'), ('threading', 'C:\\Python27\\lib\\threading.pyc', 'PYMODULE'), ('pyreadline.console.ansi', 'C:\\Python27\\lib\\site-packages\\pyreadline\\console\\ansi.pyc', 'PYMODULE'), ('encodings.gb2312', 'C:\\Python27\\lib\\encodings\\gb2312.pyc', 'PYMODULE'), ('ctypes.wintypes', 'C:\\Python27\\lib\\ctypes\\wintypes.pyc', 'PYMODULE'), ('encodings.cp857', 'C:\\Python27\\lib\\encodings\\cp857.pyc', 'PYMODULE'), ('encodings.cp856', 'C:\\Python27\\lib\\encodings\\cp856.pyc', 'PYMODULE'), ('encodings.cp855', 'C:\\Python27\\lib\\encodings\\cp855.pyc', 'PYMODULE'), ('encodings.cp852', 'C:\\Python27\\lib\\encodings\\cp852.pyc', 'PYMODULE'), ('locale', 'C:\\Python27\\lib\\locale.pyc', 'PYMODULE'), ('encodings.cp858', 'C:\\Python27\\lib\\encodings\\cp858.pyc', 'PYMODULE'), ('atexit', 'C:\\Python27\\lib\\atexit.pyc', 'PYMODULE'), ('pyreadline.unicode_helper', 'C:\\Python27\\lib\\site-packages\\pyreadline\\unicode_helper.pyc', 'PYMODULE'), ('calendar', 'C:\\Python27\\lib\\calendar.pyc', 'PYMODULE'), ('encodings.shift_jis_2004', 'C:\\Python27\\lib\\encodings\\shift_jis_2004.pyc', 'PYMODULE'), ('encodings.mac_greek', 'C:\\Python27\\lib\\encodings\\mac_greek.pyc', 'PYMODULE'), ('urllib', 'C:\\Python27\\lib\\urllib.pyc', 'PYMODULE'), ('pyreadline.lineeditor', 'C:\\Python27\\lib\\site-packages\\pyreadline\\lineeditor\\__init__.pyc', 'PYMODULE'), ('encodings.koi8_r', 'C:\\Python27\\lib\\encodings\\koi8_r.pyc', 'PYMODULE'), ('_MozillaCookieJar', 'C:\\Python27\\lib\\_MozillaCookieJar.pyc', 'PYMODULE'), ('encodings.koi8_u', 'C:\\Python27\\lib\\encodings\\koi8_u.pyc', 'PYMODULE'), ('multiprocessing.dummy.connection', 'C:\\Python27\\lib\\multiprocessing\\dummy\\connection.pyc', 'PYMODULE'), ('unittest.case', 'C:\\Python27\\lib\\unittest\\case.pyc', 'PYMODULE'), ('encodings.cp1026', 'C:\\Python27\\lib\\encodings\\cp1026.pyc', 'PYMODULE'), ('encodings.undefined', 'C:\\Python27\\lib\\encodings\\undefined.pyc', 'PYMODULE'), ('encodings.utf_16_le', 'C:\\Python27\\lib\\encodings\\utf_16_le.pyc', 'PYMODULE'), ('ctypes', 'C:\\Python27\\lib\\ctypes\\__init__.pyc', 'PYMODULE'), ('Queue', 'C:\\Python27\\lib\\Queue.pyc', 'PYMODULE'), ('encodings.ptcp154', 'C:\\Python27\\lib\\encodings\\ptcp154.pyc', 'PYMODULE'), ('distutils.spawn', 'C:\\Python27\\lib\\distutils\\spawn.pyc', 'PYMODULE'), ('opcode', 'C:\\Python27\\lib\\opcode.pyc', 'PYMODULE'), ('pdb', 'C:\\Python27\\lib\\pdb.pyc', 'PYMODULE'), ('pyreadline.modes.emacs', 'C:\\Python27\\lib\\site-packages\\pyreadline\\modes\\emacs.pyc', 'PYMODULE'), ('unittest', 'C:\\Python27\\lib\\unittest\\__init__.pyc', 'PYMODULE'), ('encodings.bz2_codec', 'C:\\Python27\\lib\\encodings\\bz2_codec.pyc', 'PYMODULE'), ('dummy_thread', 'C:\\Python27\\lib\\dummy_thread.pyc', 'PYMODULE'), ('encodings.unicode_escape', 'C:\\Python27\\lib\\encodings\\unicode_escape.pyc', 'PYMODULE'), ('encodings.mac_croatian', 'C:\\Python27\\lib\\encodings\\mac_croatian.pyc', 'PYMODULE'), ('sre_constants', 'C:\\Python27\\lib\\sre_constants.pyc', 'PYMODULE'), ('pyreadline.clipboard', 'C:\\Python27\\lib\\site-packages\\pyreadline\\clipboard\\__init__.pyc', 'PYMODULE'), ('encodings.utf_32', 'C:\\Python27\\lib\\encodings\\utf_32.pyc', 'PYMODULE'), ('encodings.hp_roman8', 'C:\\Python27\\lib\\encodings\\hp_roman8.pyc', 'PYMODULE'), ('email.utils', 'C:\\Python27\\lib\\email\\utils.pyc', 'PYMODULE'), ('pyreadline.error', 'C:\\Python27\\lib\\site-packages\\pyreadline\\error.pyc', 'PYMODULE'), ('encodings.iso8859_16', 'C:\\Python27\\lib\\encodings\\iso8859_16.pyc', 'PYMODULE'), ('encodings.iso8859_15', 'C:\\Python27\\lib\\encodings\\iso8859_15.pyc', 'PYMODULE'), ('encodings.iso8859_14', 'C:\\Python27\\lib\\encodings\\iso8859_14.pyc', 'PYMODULE'), ('encodings.iso8859_13', 'C:\\Python27\\lib\\encodings\\iso8859_13.pyc', 'PYMODULE'), ('encodings.iso8859_11', 'C:\\Python27\\lib\\encodings\\iso8859_11.pyc', 'PYMODULE'), ('encodings.iso8859_10', 'C:\\Python27\\lib\\encodings\\iso8859_10.pyc', 'PYMODULE'), ('copy_reg', 'C:\\Python27\\lib\\copy_reg.pyc', 'PYMODULE'), ('iu', 'C:\\pyinstaller-2.0\\PyInstaller\\loader\\iu.pyc', 'PYMODULE'), ('site', 'C:\\pyinstaller-2.0\\PyInstaller\\fake\\fake-site.pyc', 'PYMODULE'), ('email.mime.message', 'C:\\Python27\\lib\\email\\mime\\message.pyc', 'PYMODULE'), ('io', 'C:\\Python27\\lib\\io.pyc', 'PYMODULE'), ('sndhdr', 'C:\\Python27\\lib\\sndhdr.pyc', 'PYMODULE'), ('encodings.utf_32_be', 'C:\\Python27\\lib\\encodings\\utf_32_be.pyc', 'PYMODULE'), ('encodings.hex_codec', 'C:\\Python27\\lib\\encodings\\hex_codec.pyc', 'PYMODULE'), ('multiprocessing.queues', 'C:\\Python27\\lib\\multiprocessing\\queues.pyc', 'PYMODULE'), ('multiprocessing.synchronize', 'C:\\Python27\\lib\\multiprocessing\\synchronize.pyc', 'PYMODULE'), ('sqlite3', 'C:\\Python27\\lib\\sqlite3\\__init__.pyc', 'PYMODULE'), ('email.mime.nonmultipart', 'C:\\Python27\\lib\\email\\mime\\nonmultipart.pyc', 'PYMODULE'), ('rfc822', 'C:\\Python27\\lib\\rfc822.pyc', 'PYMODULE'), ('encodings.idna', 'C:\\Python27\\lib\\encodings\\idna.pyc', 'PYMODULE'), ('multiprocessing.heap', 'C:\\Python27\\lib\\multiprocessing\\heap.pyc', 'PYMODULE'), ('xmllib', 'C:\\Python27\\lib\\xmllib.pyc', 'PYMODULE'), ('winerror', 'C:\\Python27\\lib\\site-packages\\win32\\lib\\winerror.pyc', 'PYMODULE'), ('difflib', 'C:\\Python27\\lib\\difflib.pyc', 'PYMODULE'), ('distutils.errors', 'C:\\Python27\\lib\\distutils\\errors.pyc', 'PYMODULE'), ('urlparse', 'C:\\Python27\\lib\\urlparse.pyc', 'PYMODULE'), ('encodings.cp950', 'C:\\Python27\\lib\\encodings\\cp950.pyc', 'PYMODULE'), ('sets', 'C:\\Python27\\lib\\sets.pyc', 'PYMODULE'), ('gzip', 'C:\\Python27\\lib\\gzip.pyc', 'PYMODULE'), ('heapq', 'C:\\Python27\\lib\\heapq.pyc', 'PYMODULE'), ('pyreadline.clipboard.ironpython_clipboard', 'C:\\Python27\\lib\\site-packages\\pyreadline\\clipboard\\ironpython_clipboard.pyc', 'PYMODULE'), ('encodings.johab', 'C:\\Python27\\lib\\encodings\\johab.pyc', 'PYMODULE'), ('xml.parsers', 'C:\\Python27\\lib\\xml\\parsers\\__init__.pyc', 'PYMODULE'), ('aifc', 'C:\\Python27\\lib\\aifc.pyc', 'PYMODULE'), ('config', 'C:\\Users\\junfeng\\Desktop\\qqmusic_download\\config.pyc', 'PYMODULE'), ('email.mime', 'C:\\Python27\\lib\\email\\mime\\__init__.pyc', 'PYMODULE'), ('struct', 'C:\\Python27\\lib\\struct.pyc', 'PYMODULE'), ('collections', 'C:\\Python27\\lib\\collections.pyc', 'PYMODULE'), ('encodings.utf_32_le', 'C:\\Python27\\lib\\encodings\\utf_32_le.pyc', 'PYMODULE'), ('unittest.main', 'C:\\Python27\\lib\\unittest\\main.pyc', 'PYMODULE'), ('multiprocessing.forking', 'C:\\Python27\\lib\\multiprocessing\\forking.pyc', 'PYMODULE'), ('pyreadline.py3k_compat', 'C:\\Python27\\lib\\site-packages\\pyreadline\\py3k_compat.pyc', 'PYMODULE'), ('encodings.euc_kr', 'C:\\Python27\\lib\\encodings\\euc_kr.pyc', 'PYMODULE'), ('multiprocessing.dummy', 'C:\\Python27\\lib\\multiprocessing\\dummy\\__init__.pyc', 'PYMODULE'), ('textwrap', 'C:\\Python27\\lib\\textwrap.pyc', 'PYMODULE'), ('encodings.cp037', 'C:\\Python27\\lib\\encodings\\cp037.pyc', 'PYMODULE'), ('encodings.big5hkscs', 'C:\\Python27\\lib\\encodings\\big5hkscs.pyc', 'PYMODULE'), ('encodings.cp949', 'C:\\Python27\\lib\\encodings\\cp949.pyc', 'PYMODULE'), ('encodings.mac_romanian', 'C:\\Python27\\lib\\encodings\\mac_romanian.pyc', 'PYMODULE'), ('quopri', 'C:\\Python27\\lib\\quopri.pyc', 'PYMODULE'), ('distutils.log', 'C:\\Python27\\lib\\distutils\\log.pyc', 'PYMODULE'), ('multiprocessing.reduction', 'C:\\Python27\\lib\\multiprocessing\\reduction.pyc', 'PYMODULE'), ('mimetypes', 'C:\\Python27\\lib\\mimetypes.pyc', 'PYMODULE'), ('xml.parsers.expat', 'C:\\Python27\\lib\\xml\\parsers\\expat.pyc', 'PYMODULE'), ('encodings.mac_iceland', 'C:\\Python27\\lib\\encodings\\mac_iceland.pyc', 'PYMODULE'), ('pyreadline.modes.notemacs', 'C:\\Python27\\lib\\site-packages\\pyreadline\\modes\\notemacs.pyc', 'PYMODULE'), ('encodings.iso2022_jp', 'C:\\Python27\\lib\\encodings\\iso2022_jp.pyc', 'PYMODULE'), ('email.errors', 'C:\\Python27\\lib\\email\\errors.pyc', 'PYMODULE'), ('multiprocessing.managers', 'C:\\Python27\\lib\\multiprocessing\\managers.pyc', 'PYMODULE'), ('glob', 'C:\\Python27\\lib\\glob.pyc', 'PYMODULE'), ('UserDict', 'C:\\Python27\\lib\\UserDict.pyc', 'PYMODULE'), ('inspect', 'C:\\Python27\\lib\\inspect.pyc', 'PYMODULE'), ('encodings.mac_farsi', 'C:\\Python27\\lib\\encodings\\mac_farsi.pyc', 'PYMODULE'), ('pyreadline.keysyms.ironpython_keysyms', 'C:\\Python27\\lib\\site-packages\\pyreadline\\keysyms\\ironpython_keysyms.pyc', 'PYMODULE'), ('unittest.runner', 'C:\\Python27\\lib\\unittest\\runner.pyc', 'PYMODULE'), ('unittest.loader', 'C:\\Python27\\lib\\unittest\\loader.pyc', 'PYMODULE'), ('socket', 'C:\\Python27\\lib\\socket.pyc', 'PYMODULE'), ('imghdr', 'C:\\Python27\\lib\\imghdr.pyc', 'PYMODULE'), ('encodings.tis_620', 'C:\\Python27\\lib\\encodings\\tis_620.pyc', 'PYMODULE'), ('os', 'C:\\Python27\\lib\\os.pyc', 'PYMODULE'), ('__future__', 'C:\\Python27\\lib\\__future__.pyc', 'PYMODULE'), ('pyreadline.lineeditor.history', 'C:\\Python27\\lib\\site-packages\\pyreadline\\lineeditor\\history.pyc', 'PYMODULE'), ('xml.sax.xmlreader', 'C:\\Python27\\lib\\xml\\sax\\xmlreader.pyc', 'PYMODULE'), ('_threading_local', 'C:\\Python27\\lib\\_threading_local.pyc', 'PYMODULE'), ('encodings.mac_roman', 'C:\\Python27\\lib\\encodings\\mac_roman.pyc', 'PYMODULE'), ('encodings.cp437', 'C:\\Python27\\lib\\encodings\\cp437.pyc', 'PYMODULE'), ('multiprocessing.connection', 'C:\\Python27\\lib\\multiprocessing\\connection.pyc', 'PYMODULE'), ('email._parseaddr', 'C:\\Python27\\lib\\email\\_parseaddr.pyc', 'PYMODULE'), ('xml.sax.handler', 'C:\\Python27\\lib\\xml\\sax\\handler.pyc', 'PYMODULE'), ('ctypes.macholib.dylib', 'C:\\Python27\\lib\\ctypes\\macholib\\dylib.pyc', 'PYMODULE'), ('uu', 'C:\\Python27\\lib\\uu.pyc', 'PYMODULE'), ('encodings.cp500', 'C:\\Python27\\lib\\encodings\\cp500.pyc', 'PYMODULE'), ('encodings.gb18030', 'C:\\Python27\\lib\\encodings\\gb18030.pyc', 'PYMODULE'), ('email.mime.base', 'C:\\Python27\\lib\\email\\mime\\base.pyc', 'PYMODULE'), ('win32evtlogutil', 'C:\\Python27\\lib\\site-packages\\win32\\lib\\win32evtlogutil.pyc', 'PYMODULE'), ('mimetools', 'C:\\Python27\\lib\\mimetools.pyc', 'PYMODULE'), ('xml.sax', 'C:\\Python27\\lib\\xml\\sax\\__init__.pyc', 'PYMODULE'), ('contextlib', 'C:\\Python27\\lib\\contextlib.pyc', 'PYMODULE'), ('archive', 'C:\\pyinstaller-2.0\\PyInstaller\\loader\\archive.pyc', 'PYMODULE'), ('_strptime', 'C:\\Python27\\lib\\_strptime.pyc', 'PYMODULE'), ('gettext', 'C:\\Python27\\lib\\gettext.pyc', 'PYMODULE'), ('_abcoll', 'C:\\Python27\\lib\\_abcoll.pyc', 'PYMODULE'), ('getopt', 'C:\\Python27\\lib\\getopt.pyc', 'PYMODULE'), ('email.mime.audio', 'C:\\Python27\\lib\\email\\mime\\audio.pyc', 'PYMODULE'), ('xml.sax._exceptions', 'C:\\Python27\\lib\\xml\\sax\\_exceptions.pyc', 'PYMODULE'), ('genericpath', 'C:\\Python27\\lib\\genericpath.pyc', 'PYMODULE'), ('stat', 'C:\\Python27\\lib\\stat.pyc', 'PYMODULE'), ('win32con', 'C:\\Python27\\lib\\site-packages\\win32\\lib\\win32con.pyc', 'PYMODULE'), ('urllib2', 'C:\\Python27\\lib\\urllib2.pyc', 'PYMODULE'), ('unittest.signals', 'C:\\Python27\\lib\\unittest\\signals.pyc', 'PYMODULE'), ('readline', 'C:\\Python27\\lib\\site-packages\\readline.pyc', 'PYMODULE'), ('encodings.raw_unicode_escape', 'C:\\Python27\\lib\\encodings\\raw_unicode_escape.pyc', 'PYMODULE'), ('encodings.mbcs', 'C:\\Python27\\lib\\encodings\\mbcs.pyc', 'PYMODULE'), ('distutils.text_file', 'C:\\Python27\\lib\\distutils\\text_file.pyc', 'PYMODULE')],
 [('Microsoft.VC90.CRT.manifest', 'C:\\Windows\\WinSxS\\Manifests\\x86_microsoft.vc90.crt_1fc8b3b9a1e18e3b_9.0.21022.8_none_bcb86ed6ac711f91.manifest', 'BINARY'), ('msvcr90.dll', 'C:\\Windows\\WinSxS\\x86_microsoft.vc90.crt_1fc8b3b9a1e18e3b_9.0.21022.8_none_bcb86ed6ac711f91\\msvcr90.dll', 'BINARY'), ('msvcp90.dll', 'C:\\Windows\\WinSxS\\x86_microsoft.vc90.crt_1fc8b3b9a1e18e3b_9.0.21022.8_none_bcb86ed6ac711f91\\msvcp90.dll', 'BINARY'), ('msvcm90.dll', 'C:\\Windows\\WinSxS\\x86_microsoft.vc90.crt_1fc8b3b9a1e18e3b_9.0.21022.8_none_bcb86ed6ac711f91\\msvcm90.dll', 'BINARY'), ('python27.dll', 'C:\\Windows\\system32\\python27.dll', 'BINARY'), ('select', 'C:\\Python27\\DLLs\\select.pyd', 'EXTENSION'), ('unicodedata', 'C:\\Python27\\DLLs\\unicodedata.pyd', 'EXTENSION'), ('win32evtlog', 'C:\\Python27\\lib\\site-packages\\win32\\win32evtlog.pyd', 'EXTENSION'), ('user32.dll', 'C:\\Windows\\system32\\user32.dll', 'BINARY'), ('msvcrt.dll', 'C:\\Windows\\system32\\msvcrt.dll', 'BINARY'), ('_hashlib', 'C:\\Python27\\DLLs\\_hashlib.pyd', 'EXTENSION'), ('bz2', 'C:\\Python27\\DLLs\\bz2.pyd', 'EXTENSION'), ('_ssl', 'C:\\Python27\\DLLs\\_ssl.pyd', 'EXTENSION'), ('_ctypes', 'C:\\Python27\\DLLs\\_ctypes.pyd', 'EXTENSION'), ('pyexpat', 'C:\\Python27\\DLLs\\pyexpat.pyd', 'EXTENSION'), ('_multiprocessing', 'C:\\Python27\\DLLs\\_multiprocessing.pyd', 'EXTENSION'), ('win32api', 'C:\\Python27\\lib\\site-packages\\win32\\win32api.pyd', 'EXTENSION'), ('_sqlite3', 'C:\\Python27\\DLLs\\_sqlite3.pyd', 'EXTENSION'), ('_socket', 'C:\\Python27\\DLLs\\_socket.pyd', 'EXTENSION'), ('pywintypes27.dll', 'C:\\Windows\\system32\\pywintypes27.dll', 'BINARY'), ('sqlite3.dll', 'C:\\Python27\\DLLs\\sqlite3.dll', 'BINARY')],
 [],
 [('include\\pyconfig.h', 'C:\\Python27\\include\\pyconfig.h', 'DATA')],
 ['encodings'])
