('D:\\build\\pyi.win32\\qqmusic_download\\out00-PKG.pkg',
 {'BINARY': 1,
  'DATA': 1,
  'EXECUTABLE': 1,
  'EXTENSION': 1,
  'PYMODULE': 1,
  'PYSOURCE': 1},
 [('out00-PYZ.pyz', 'D:\\build\\pyi.win32\\qqmusic_download\\out00-PYZ.pyz', 'PYZ'), ('iu', 'C:\\pyinstaller-2.0\\PyInstaller\\loader\\iu.pyc', 'PYMODULE'), ('struct', 'C:\\Python27\\lib\\struct.pyc', 'PYMODULE'), ('archive', 'C:\\pyinstaller-2.0\\PyInstaller\\loader\\archive.pyc', 'PYMODULE'), ('_pyi_bootstrap', 'C:\\pyinstaller-2.0\\support\\_pyi_bootstrap.py', 'PYSOURCE'), ('carchive', 'C:\\pyinstaller-2.0\\PyInstaller\\loader\\carchive.py', 'PYSOURCE'), ('pyi_rth_encodings', 'C:\\pyinstaller-2.0\\support/rthooks/pyi_rth_encodings.py', 'PYSOURCE'), ('qqmusic_download', 'qqmusic_download.py', 'PYSOURCE'), ('Microsoft.VC90.CRT.manifest', 'C:\\Windows\\WinSxS\\Manifests\\x86_microsoft.vc90.crt_1fc8b3b9a1e18e3b_9.0.21022.8_none_bcb86ed6ac711f91.manifest', 'BINARY'), ('msvcr90.dll', 'C:\\Windows\\WinSxS\\x86_microsoft.vc90.crt_1fc8b3b9a1e18e3b_9.0.21022.8_none_bcb86ed6ac711f91\\msvcr90.dll', 'BINARY'), ('msvcp90.dll', 'C:\\Windows\\WinSxS\\x86_microsoft.vc90.crt_1fc8b3b9a1e18e3b_9.0.21022.8_none_bcb86ed6ac711f91\\msvcp90.dll', 'BINARY'), ('msvcm90.dll', 'C:\\Windows\\WinSxS\\x86_microsoft.vc90.crt_1fc8b3b9a1e18e3b_9.0.21022.8_none_bcb86ed6ac711f91\\msvcm90.dll', 'BINARY'), ('python27.dll', 'C:\\Windows\\system32\\python27.dll', 'BINARY'), ('select', 'C:\\Python27\\DLLs\\select.pyd', 'EXTENSION'), ('unicodedata', 'C:\\Python27\\DLLs\\unicodedata.pyd', 'EXTENSION'), ('win32evtlog', 'C:\\Python27\\lib\\site-packages\\win32\\win32evtlog.pyd', 'EXTENSION'), ('user32.dll', 'C:\\Windows\\system32\\user32.dll', 'BINARY'), ('msvcrt.dll', 'C:\\Windows\\system32\\msvcrt.dll', 'BINARY'), ('_hashlib', 'C:\\Python27\\DLLs\\_hashlib.pyd', 'EXTENSION'), ('bz2', 'C:\\Python27\\DLLs\\bz2.pyd', 'EXTENSION'), ('_ssl', 'C:\\Python27\\DLLs\\_ssl.pyd', 'EXTENSION'), ('_ctypes', 'C:\\Python27\\DLLs\\_ctypes.pyd', 'EXTENSION'), ('pyexpat', 'C:\\Python27\\DLLs\\pyexpat.pyd', 'EXTENSION'), ('_multiprocessing', 'C:\\Python27\\DLLs\\_multiprocessing.pyd', 'EXTENSION'), ('win32api', 'C:\\Python27\\lib\\site-packages\\win32\\win32api.pyd', 'EXTENSION'), ('_sqlite3', 'C:\\Python27\\DLLs\\_sqlite3.pyd', 'EXTENSION'), ('_socket', 'C:\\Python27\\DLLs\\_socket.pyd', 'EXTENSION'), ('pywintypes27.dll', 'C:\\Windows\\system32\\pywintypes27.dll', 'BINARY'), ('sqlite3.dll', 'C:\\Python27\\DLLs\\sqlite3.dll', 'BINARY'), ('include\\pyconfig.h', 'C:\\Python27\\include\\pyconfig.h', 'DATA'), ('qqmusic_download.exe.manifest', 'D:\\build\\pyi.win32\\qqmusic_download\\qqmusic_download.exe.manifest', 'BINARY')],
 0,
 None,
 True,
 0)
